{
  "rules": {
    ".read": "auth != null",
    ".write": "auth != null",
    "usuarios": {
      ".indexOn": "userID"
    },
    "bloqueTemas": {
      ".indexOn": "bloque"
    },
    "bloqueAprendizajes": {
      ".indexOn": "bloque"
    },
    "bloquePreguntas": {
      ".indexOn": "bloque"
    },
    "bloqueRecursos": {
      ".indexOn": "bloque"
    },
    "bloqueProyectos": {
      ".indexOn": "bloque"
    },
    "materiaCompetenciasSEP": {
      ".indexOn": "materia"
    },
    "materiaCompetenciasTrans": {
      ".indexOn": "materia"
    }
  }
}
